.....
----------------------------------------------------------------------
Ran 5 tests in 0.001s

OK
Name               Stmts   Miss Branch BrPart  Cover   Missing
--------------------------------------------------------------
Diplomacy.py         101      5     84      0    96%   41, 53-57
TestDiplomacy.py      32      0      2      0   100%
--------------------------------------------------------------
TOTAL                133      5     86      0    97%
